{
  "pageSize": 2,
  "currentPage": 1,
  "totalResults": 3,
  "totalPages": 2,
  "results": [
    {
      "link": "/mayors-office/news/2024/12/emergency-executive-order-718.html",
      "title": "Emergency Executive Order 718",
      "articleDate": "December 29, 2024",
      "articleImage": null,
      "articleImageAlt": null,
      "articleDesc": null
    },
    {
      "link": "/mayors-office/news/2024/12/emergency-executive-order-716.html",
      "title": "Emergency Executive Order 716",
      "articleDate": "December 20, 2024",
      "articleImage": null,
      "articleImageAlt": null,
      "articleDesc": null
    }
  ],
  "events": null
}
