{
  "pageSize": 2,
  "currentPage": 2,
  "totalResults": 3,
  "totalPages": 2,
  "results": [
    {
      "link": "/mayors-office/news/2024/01/executive-order-42.html",
      "title": "Executive Order 42",
      "articleDate": "January 5, 2024",
      "articleImage": null,
      "articleImageAlt": null,
      "articleDesc": null
    }
  ],
  "events": null
}
